Depot 0;Gare de Feyzin;Raffinerie;Louise Michel;Hector Berlioz;Les Razes;Vernay;Ile de la Chevre
0;0;0;0;0;0;0;0
0;2.43;19.62;19.62;1.962;4.90;6.13;6.13
0;0;0;0;0;0;0;0
0;0;0;0;0;0;0;0
0;2.43;19.62;19.62;1.962;4.90;6.13;6.13
0;0;0;0;0;0;0;0
0;0;0;0;0;0;0;0
0;0;0;0;0;0;0;0
